…
``` r
 mod_1 = lm(bwt~blength + gaweeks,birthweight)
 mod_2 = lm(bwt~bhead + blength + babysex + bhead*blength + bhead*babysex + blength*babysex + bhead*blength*babysex ,birthweight)
```

``` r
cv_df = 
  crossv_mc(birthweight, 100) 

cv_df %>% pull(train) %>% .[[1]] %>% as_tibble
```

    ## # A tibble: 3,473 x 20
    ##    babysex bhead blength   bwt delwt fincome frace gaweeks malform menarche
    ##    <fct>   <dbl>   <dbl> <dbl> <dbl>   <dbl> <fct>   <dbl> <fct>      <dbl>
    ##  1 male       34      48  3062   156      65 Black    25.9 absent        14
    ##  2 female     36      50  3345   148      85 White    39.9 absent        12
    ##  3 male       34      52  3062   157      55 White    40   absent        14
    ##  4 female     34      52  3374   156       5 White    41.6 absent        13
    ##  5 male       33      52  3374   129      55 White    40.7 absent        12
    ##  6 female     33      46  2523   126      96 Black    40.3 absent        14
    ##  7 female     33      49  2778   140       5 White    37.4 absent        12
    ##  8 male       36      52  3515   146      85 White    40.3 absent        11
    ##  9 female     35      51  3317   130      55 White    43.4 absent        13
    ## 10 male       35      51  3459   146      55 White    39.4 absent        12
    ## # … with 3,463 more rows, and 10 more variables: mheight <dbl>,
    ## #   momage <dbl>, mrace <fct>, parity <dbl>, pnumlbw <dbl>, pnumsga <dbl>,
    ## #   ppbmi <dbl>, ppwt <dbl>, smoken <dbl>, wtgain <dbl>
…
